{
    "applications": {
        "test-app": "ultrasecrethashkey"
    },
    "committees": {
        "0": ["board", "Board"],
        "1": ["webcie", "AC/DCee"]
    },
    "members": {
        "709": {
            "email": "jelmer@svcover.nl",
            "password": "test",
            "voornaam": "Jelmer",
            "tussenvoegsel": "van der",
            "achternaam": "Linde",
            "adres": "Nijenborgh 9",
            "postcode": "9747 AG",
            "woonplaats": "Groningen",
            "geboortedatum":  "1993-09-20",
            "telefoonnummer": "050-3636898",
            "beginjaar": 2014,
            "nick": "jelmervdl",
            "member_from": "2014-09-01",
            "member_till": null,
            "donor_from": null,
            "donor_till": null,
            "committees": [0, 1]
        }
    },
    "agenda": {
        "2222": {
            "kop": "Movie night",
            "beschrijving": "It's time for another movie night!\r\n\r\nThis time, we're going to watch The Room! We hope you're as exited as we are.\r\n\r\nPlease register [url=https://movienight.svcover.nl/]here[/url]!",
            "committee_id": 0,
            "van": "2022-01-01 18:00:00+00",
            "tot": "2022-01-01 18:00:00+00", // Equal to 'van' if no end time provided
            "locatie": "Bernoulliborg",
            "private": 1, // 0 (public) or 1 (means only visible for members).
            "extern": 0, // 0 (cover activity) or 1 (external activity, eg. Beta Business Days)
        }
    }
}
